{
  "nycQuarterlyCountHome": {
    "uiItemProperties": {
      "uiItemType": "menu",
      "headerBarTitle": "HOPE 2017"
    },
    "childUiItems": {
      "nycQuarterlyCountUserDisplay": {
        "uiItemProperties": {
          "rank": 1,
          "uiItemType": "assignmentDisplay",
          "assignmentType": "user"
        }
      },
      "nycQuarterlyCountSiteDisplay": {
        "uiItemProperties": {
          "rank": 2,
          "uiItemType": "assignmentDisplay",
          "assignmentType": "site"
        }
      },
      "nycQuarterlyCountTeamDisplay": {
        "uiItemProperties": {
          "rank": 3,
          "uiItemType": "assignmentDisplay",
          "assignmentType": "team"
        }
      },
      "nycQuarterlyCountStartSurveyButton": {
        "uiItemProperties": {
          "rank": 1,
          "uiItemType": "changeActiveUiItemButton",
          "newActiveUiItem": "nycQuarterlyCountSurvey",
          "buttonText": "Start Survey",
          "buttonColor": "#01acac"
        }
      },
      "nycQuarterlyCountSummaryButton": {
        "uiItemProperties": {
          "rank": 3,
          "uiItemType": "changeActiveUiItemButton",
          "newActiveUiItem": "nycQuarterlyCountSummary",
          "buttonText": "Summary"
        }
      },
      "nycQuarterlyCountSiteCheckOutButton": {
        "uiItemProperties": {
          "rank": 4,
          "uiItemType": "instantFormSubmitButton",
          "uiItemAfterSubmit": "nycQuarterlyCountAfterSiteCheckOutThankYou",
          "buttonText": "End of Count Check Out",
          "bootstrappedAssignments": {
            "formType": "routeCheckOut",
            "formTypeCategory": "checkOut"
          },
          "alertUser": "true",
          "alertTitle": "End of Count Check Out",
          "alertMessage": "Are you sure you want to check out?"
        },
        "childUiItems": {
          "nycSiteCheckOutAlertButton1": {
            "uiItemProperties": {
              "rank": 1,
              "text": "Cancel",
              "style": "cancel"
            }
          },
          "nycSiteCheckOutAlertButton2": {
            "uiItemProperties": {
              "rank": 2,
              "text": "Check Out",
              "style": "destructive",
              "nextAction": "validFormSubmitAttempt"
            }
          }
        }
      },
      "nycQuarterlyCountRefreshButton": {
        "uiItemProperties": {
          "rank": 2,
          "uiItemType": "instantFormSubmitButton",
          "uiItemAfterSubmit": "nycQuarterlyCountHome",
          "buttonText": "Refresh",
          "buttonColor": "#f7b048",
          "alertAfterSubmit": "Refresh Success",
          "bootstrappedAssignments": {
            "formType": "homeRefresh",
            "formTypeCategory": "refresh",
            "countType": "quarterlyCount",
            "municipality": "nyc"
          }
        }
      }
    }
  }
}
